<!DOCTYPE svg PUBLIC "-//W3C//DTD SVG 1.1//EN" "http://www.w3.org/Graphics/SVG/1.1/DTD/svg11.dtd">
<svg version="1.1" xmlns="http://www.w3.org/2000/svg" xmlns:xlink="http://www.w3.org/1999/xlink" x="0px" y="0px" width="160em"
	 height="160em" viewBox="0 0 160 160" enable-background="new 0 0 160 160" xml:space="preserve">
<g id="icons">
	<g id="icon_view">
			<path fill-rule="evenodd" clip-rule="evenodd" fill="#E0E4F0" d="M21,26.969h5.969V21H21V26.969z M22.965,22.965h2.07v2.07h-2.07
				V22.965z M13,26.969h5.969V21H13V26.969z M14.965,22.965h2.07v2.07h-2.07V22.965z M21,13v5.969h5.969V13H21z M25.035,17.035
				h-2.07v-2.07h2.07V17.035z M13,18.969h5.969V13H13V18.969z M14.965,14.965h2.07v2.07h-2.07V14.965z"/>
	</g>
	<g id="statistics_4">
			<path fill-rule="evenodd" clip-rule="evenodd" fill="#E0E4F0" d="M27,65.969H14V62.27l3.522-3.522
				c0.222,0.131,0.478,0.211,0.754,0.211c0.246,0,0.475-0.065,0.68-0.17l0.146,0.146C19.039,59.099,19,59.276,19,59.464
				c0,0.826,0.669,1.495,1.496,1.495c0.826,0,1.495-0.669,1.495-1.495c0-0.235-0.06-0.455-0.156-0.653l3.007-3.008
				c0.198,0.097,0.418,0.156,0.653,0.156c0.826,0,1.496-0.669,1.496-1.495s-0.669-1.495-1.496-1.495
				c-0.826,0-1.495,0.669-1.495,1.495c0,0.224,0.053,0.435,0.141,0.625l-3.02,3.021c-0.191-0.088-0.401-0.141-0.625-0.141
				c-0.271,0-0.522,0.078-0.741,0.204l-0.109-0.109c0.081-0.184,0.127-0.386,0.127-0.599c0-0.825-0.669-1.495-1.496-1.495
				c-0.826,0-1.495,0.67-1.495,1.495c0,0.182,0.037,0.353,0.096,0.514L14,60.856V53h-1v14h1v-0.031h13V65.969z"/>
	</g>
	<g id="users">
			<path fill-rule="evenodd" clip-rule="evenodd" fill="#E0E4F0" d="M22.024,100.04c2.248,0,2.248-3.635,2.248-3.635
				s0-2.423-2.248-2.423c-0.691,0-1.168,0.23-1.5,0.547c0.746,0.715,0.748,1.876,0.748,1.876s-0.001,1.741-0.748,2.813
				C20.855,99.695,21.333,100.04,22.024,100.04z M22.43,101.025c2.107,1.706,1.45,4.952,1.45,4.952h3
				C26.88,105.978,28.021,101.273,22.43,101.025z M17.982,101.002c-6.122,0-4.897,4.976-4.897,4.976h9.795
				C22.88,105.978,24.104,101.002,17.982,101.002z M18.024,100.04c2.248,0,2.248-3.635,2.248-3.635s0-2.423-2.248-2.423
				c-2.248,0-2.248,2.423-2.248,2.423S15.776,100.04,18.024,100.04z"/>
	</g>
	<g id="log_out">
			<path fill-rule="evenodd" clip-rule="evenodd" fill="#E0E4F0" d="M25.024,138.005c0-0.002,0-0.003,0-0.005
				c0-2.758-2.236-4.993-4.994-4.993s-4.994,2.235-4.994,4.993H15c-0.552,0-1,0.447-1,1v6c0,0.553,0.448,1,1,1h10
				c0.552,0,1-0.447,1-1v-6C26,138.456,25.564,138.019,25.024,138.005z M21,142.723v1.309c0,0.553-0.448,1-1,1h-0.031
				c-0.552,0-1-0.447-1-1v-1.326C18.391,142.355,18,141.726,18,141c0-1.104,0.896-2,2-2s2,0.896,2,2
				C22,141.738,21.595,142.376,21,142.723z M17.023,138c0-1.661,1.347-3.008,3.008-3.008s3.008,1.347,3.008,3.008H17.023z"/>
	</g>
	<g id="arrow_1">
			<path fill-rule="evenodd" clip-rule="evenodd" fill="#E0E4F0" d="M66.722,20.145l-6.364-6.952
				c-0.002-0.002-0.003-0.004-0.005-0.006l-0.013-0.015c-0.089-0.097-0.215-0.157-0.356-0.157c-0.153,0-0.289,0.071-0.378,0.182
				l-6.343,6.951h0c-0.082,0.087-0.133,0.204-0.133,0.333c0,0.267,0.216,0.483,0.483,0.484h3.386v6.009h5.988v-6.009h3.387
				c0.268,0,0.484-0.217,0.484-0.484C66.858,20.35,66.806,20.231,66.722,20.145z"/>
	</g>
	<g id="trash_copy">
			<path fill-rule="evenodd" clip-rule="evenodd" fill="#E8E8E8" d="M66,55h-2v-1c0-0.553-0.479-1-1.031-1H59c-0.552,0-1,0.447-1,1
				v1h-2c-0.552,0-1,0.447-1,1v0.969h1V66c0,0.553,0.448,1,1,1h8c0.552,0,1-0.447,1-1v-9.031h0.969L67,56C67,55.447,66.552,55,66,55
				z M59,65h-1.688v-7H59V65z M59,54h4v1h-4V54z M62,65h-2v-7h2V65z M64.688,65H63v-7h1.688V65z"/>
	</g>
	<g id="star_1">
			<polygon fill-rule="evenodd" clip-rule="evenodd" fill="#E8E8E8" points="146.848,138.01 141.629,138.01 140.025,133.046 
				138.446,137.984 133.151,137.984 137.429,141.091 135.85,145.979 140.025,142.975 144.276,146.055 142.622,141.091 			"/>
	</g>
	<g id="forbidden">
			<path fill-rule="evenodd" clip-rule="evenodd" fill="#E0E4F0" d="M60.007,92.981c-3.862,0-7.004,3.141-7.004,7.001
				c0,3.861,3.142,7.002,7.004,7.002c3.862,0,7.004-3.141,7.004-7.002C67.011,96.122,63.869,92.981,60.007,92.981z M65.008,99.979
				c0,1.021-0.311,1.97-0.838,2.762l-6.926-6.926c0.792-0.527,1.74-0.837,2.761-0.837C62.764,94.978,65.008,97.221,65.008,99.979z
				 M60.005,104.979c-2.758,0-5.002-2.243-5.002-5.001c0-1.016,0.308-1.958,0.83-2.747l6.919,6.919
				C61.962,104.672,61.02,104.979,60.005,104.979z"/>
	</g>
	<g id="cog_2">
			<path fill-rule="evenodd" clip-rule="evenodd" fill="#E0E4F0" d="M65.984,138.984h-1.047c-0.135-0.64-0.401-1.229-0.753-1.754
				l0.766-0.766c0.391-0.391,0.391-1.024,0-1.415l-0.022-0.021c-0.391-0.391-1.024-0.391-1.415,0l-0.776,0.776
				c-0.522-0.339-1.104-0.594-1.737-0.72V134c0-0.553-0.448-1-1-1h-0.031c-0.552,0-1,0.447-1,1v1.098
				c-0.622,0.132-1.194,0.39-1.707,0.728l-0.797-0.797c-0.391-0.391-1.023-0.391-1.414,0l-0.022,0.021
				c-0.391,0.391-0.391,1.024,0,1.415l0.797,0.798c-0.341,0.518-0.6,1.095-0.731,1.722h-1.11c-0.552,0-1,0.447-1,1v0.031
				c0,0.553,0.448,1,1,1h1.103c0.128,0.626,0.382,1.202,0.719,1.721l-0.778,0.777c-0.391,0.391-0.391,1.023,0,1.414l0.022,0.022
				c0.391,0.39,1.023,0.39,1.414,0l0.768-0.769c0.521,0.349,1.103,0.612,1.736,0.747V146c0,0.552,0.448,1,1,1H60
				c0.552,0,1-0.448,1-1v-1.059c0.645-0.128,1.237-0.39,1.767-0.738l0.747,0.747c0.391,0.39,1.024,0.39,1.415,0l0.022-0.022
				c0.391-0.391,0.391-1.023,0-1.414l-0.746-0.745c0.348-0.526,0.61-1.114,0.74-1.753h1.04c0.552,0,1-0.447,1-1v-0.031
				C66.984,139.432,66.537,138.984,65.984,138.984z M60.016,143.058c-1.682,0-3.05-1.365-3.05-3.044c0-1.678,1.368-3.043,3.05-3.043
				c1.682,0,3.05,1.365,3.05,3.043C63.065,141.692,61.697,143.058,60.016,143.058z"/>
	</g>
	<g id="shuffle">
			<path fill-rule="evenodd" clip-rule="evenodd" fill="#E0E4F0" d="M95.545,137.389c0.252-0.632,0.594-1.219,1.008-1.745
				c-0.74-0.429-1.6-0.676-2.518-0.676h-1.023v2.016h1.023C94.585,136.983,95.1,137.132,95.545,137.389z M103.387,141.07
				L103.387,141.07c-0.043-0.034-0.096-0.056-0.153-0.056c-0.132,0-0.238,0.106-0.238,0.238h-0.001v1.777h-0.897
				c-0.55,0-1.065-0.147-1.511-0.404c-0.252,0.632-0.594,1.218-1.008,1.744c0.74,0.429,1.601,0.676,2.519,0.676h0.897v1.777h0.001
				c0,0.132,0.106,0.238,0.238,0.238c0.058,0,0.11-0.022,0.152-0.057h0.001l3.4-2.543c0.135-0.093,0.223-0.248,0.223-0.424
				s-0.088-0.331-0.223-0.425L103.387,141.07z M102.097,136.983h0.897v1.778h0.001c0,0.131,0.106,0.237,0.238,0.237
				c0.058,0,0.11-0.021,0.152-0.057l0.001,0.001l3.4-2.543c0.135-0.094,0.223-0.249,0.223-0.425s-0.088-0.331-0.223-0.424
				l-3.4-2.543h-0.001c-0.042-0.034-0.095-0.056-0.152-0.056c-0.132,0-0.238,0.106-0.238,0.237h-0.001v1.777h-0.897
				c-2.782,0-5.039,2.256-5.039,5.039c0,1.67-1.354,3.023-3.022,3.023h-1.023v2.016h1.023c2.782,0,5.038-2.256,5.038-5.039
				C99.073,138.337,100.427,136.983,102.097,136.983z"/>
	</g>
	<g id="last_signal_icon">
			<polygon fill-rule="evenodd" clip-rule="evenodd" fill="#E8E8E8" points="144.926,98.993 140.005,98.993 142.801,93 134.979,101 
				140.012,101 136.464,107 			"/>
	</g>
</g>
</svg>
